EESchema Schematic File Version 2
LIBS:power
LIBS:device
LIBS:transistors
LIBS:conn
LIBS:linear
LIBS:regul
LIBS:74xx
LIBS:cmos4000
LIBS:adc-dac
LIBS:memory
LIBS:xilinx
LIBS:microcontrollers
LIBS:dsp
LIBS:microchip
LIBS:analog_switches
LIBS:motorola
LIBS:texas
LIBS:intel
LIBS:audio
LIBS:interface
LIBS:digital-audio
LIBS:philips
LIBS:display
LIBS:cypress
LIBS:siliconi
LIBS:opto
LIBS:atmel
LIBS:contrib
LIBS:valves
LIBS:ThunderDrive
LIBS:signal_distribution-cache
EELAYER 25 0
EELAYER END
$Descr A4 11693 8268
encoding utf-8
Sheet 2 7
Title "Power supply for 12V gate drivers rail and 3V3 rail"
Date "2017-03-20"
Rev "1"
Comp "ThunderDrive"
Comment1 ""
Comment2 ""
Comment3 ""
Comment4 ""
$EndDescr
$Comp
L LM5008 U201
U 1 1 58BE44FD
P 5350 1300
F 0 "U201" H 5400 1800 60  0000 C CNN
F 1 "LM5008" H 5650 800 60  0000 C CNN
F 2 "Housings_SSOP:TSSOP-8_3x3mm_Pitch0.65mm" H 5350 1300 60  0001 C CNN
F 3 "" H 5350 1300 60  0000 C CNN
	1    5350 1300
	1    0    0    -1  
$EndComp
$Comp
L R R201
U 1 1 58BE46FA
P 3750 1200
F 0 "R201" V 3830 1200 50  0000 C CNN
F 1 "210k" V 3750 1200 50  0000 C CNN
F 2 "Resistors_SMD:R_0603_HandSoldering" V 3680 1200 50  0001 C CNN
F 3 "" H 3750 1200 50  0000 C CNN
	1    3750 1200
	0    1    1    0   
$EndComp
$Comp
L R R203
U 1 1 58BE47F3
P 8450 1700
F 0 "R203" V 8530 1700 50  0000 C CNN
F 1 "10k" V 8450 1700 50  0000 C CNN
F 2 "Resistors_SMD:R_0603_HandSoldering" V 8380 1700 50  0001 C CNN
F 3 "" H 8450 1700 50  0000 C CNN
	1    8450 1700
	-1   0    0    1   
$EndComp
$Comp
L R R205
U 1 1 58BE48F6
P 8450 2300
F 0 "R205" V 8530 2300 50  0000 C CNN
F 1 "2k64" V 8450 2300 50  0000 C CNN
F 2 "Resistors_SMD:R_0603_HandSoldering" V 8380 2300 50  0001 C CNN
F 3 "" H 8450 2300 50  0000 C CNN
	1    8450 2300
	-1   0    0    1   
$EndComp
$Comp
L R R206
U 1 1 58BE493A
P 9150 2300
F 0 "R206" V 9230 2300 50  0000 C CNN
F 1 "1R" V 9150 2300 50  0000 C CNN
F 2 "Resistors_SMD:R_0603_HandSoldering" V 9080 2300 50  0001 C CNN
F 3 "" H 9150 2300 50  0000 C CNN
	1    9150 2300
	-1   0    0    1   
$EndComp
$Comp
L D_Schottky D201
U 1 1 58BE497E
P 6700 2250
F 0 "D201" H 6700 2350 50  0000 C CNN
F 1 "DFLS1200-7" H 6700 2150 50  0000 C CNN
F 2 "Diodes_SMD:D_PowerDI-123" H 6700 2250 50  0001 C CNN
F 3 "" H 6700 2250 50  0000 C CNN
	1    6700 2250
	0    1    1    0   
$EndComp
$Comp
L C C205
U 1 1 58BE4C12
P 3200 1600
F 0 "C205" H 3225 1700 50  0000 L CNN
F 1 "100n 200V" V 3250 1100 50  0000 L CNN
F 2 "Capacitors_SMD:C_1206_HandSoldering" H 3238 1450 50  0001 C CNN
F 3 "" H 3200 1600 50  0000 C CNN
	1    3200 1600
	1    0    0    -1  
$EndComp
$Comp
L C C206
U 1 1 58BE4C91
P 7950 1700
F 0 "C206" H 7975 1800 50  0000 L CNN
F 1 "2n2" H 7975 1600 50  0000 L CNN
F 2 "Capacitors_SMD:C_0603_HandSoldering" H 7988 1550 50  0001 C CNN
F 3 "" H 7950 1700 50  0000 C CNN
	1    7950 1700
	1    0    0    -1  
$EndComp
$Comp
L C C207
U 1 1 58BE4E45
P 9150 1750
F 0 "C207" H 9175 1850 50  0000 L CNN
F 1 "2µ2" H 9175 1650 50  0000 L CNN
F 2 "Capacitors_SMD:C_1206_HandSoldering" H 9188 1600 50  0001 C CNN
F 3 "" H 9150 1750 50  0000 C CNN
	1    9150 1750
	1    0    0    -1  
$EndComp
$Comp
L L L201
U 1 1 58BE4EF3
P 7550 1400
F 0 "L201" V 7500 1400 50  0000 C CNN
F 1 "220µ" V 7625 1400 50  0000 C CNN
F 2 "signal_distribution:L_Wuerth_TPC_SMD" H 7550 1400 50  0001 C CNN
F 3 "" H 7550 1400 50  0001 C CNN
	1    7550 1400
	0    -1   -1   0   
$EndComp
$Comp
L C C201
U 1 1 58BE4FD0
P 6450 1000
F 0 "C201" V 6400 1100 50  0000 L CNN
F 1 "1µ" H 6475 900 50  0000 L CNN
F 2 "Capacitors_SMD:C_0603_HandSoldering" H 6488 850 50  0001 C CNN
F 3 "" H 6450 1000 50  0000 C CNN
	1    6450 1000
	0    1    1    0   
$EndComp
$Comp
L C C202
U 1 1 58BE5050
P 6450 1200
F 0 "C202" V 6400 1300 50  0000 L CNN
F 1 "10n" H 6475 1100 50  0000 L CNN
F 2 "Capacitors_SMD:C_0603_HandSoldering" H 6488 1050 50  0001 C CNN
F 3 "" H 6450 1200 50  0000 C CNN
	1    6450 1200
	0    1    1    0   
$EndComp
Wire Wire Line
	2650 850  2650 1450
Wire Wire Line
	3200 1000 3200 1450
Connection ~ 3200 1000
Wire Wire Line
	3900 1200 4700 1200
Wire Wire Line
	3600 1200 3500 1200
Connection ~ 3500 1000
$Comp
L R R202
U 1 1 58BE52C6
P 4250 1700
F 0 "R202" V 4150 1700 50  0000 C CNN
F 1 "107k" V 4250 1700 50  0000 C CNN
F 2 "Resistors_SMD:R_0603_HandSoldering" V 4180 1700 50  0001 C CNN
F 3 "" H 4250 1700 50  0000 C CNN
	1    4250 1700
	-1   0    0    1   
$EndComp
Wire Wire Line
	4250 1550 4250 1400
Wire Wire Line
	4250 1400 4700 1400
Wire Wire Line
	4700 1600 4500 1600
Wire Wire Line
	4500 1600 4500 2600
Wire Wire Line
	3200 2600 3200 1750
Wire Wire Line
	2650 1750 2650 2600
Connection ~ 3200 2600
Wire Wire Line
	4250 2600 4250 1850
Connection ~ 4250 2600
Wire Wire Line
	6000 1000 6300 1000
Wire Wire Line
	6300 1200 6000 1200
Wire Wire Line
	6000 1400 7400 1400
Wire Wire Line
	6600 1200 6700 1200
Wire Wire Line
	6700 1200 6700 2100
Connection ~ 6700 1400
Wire Wire Line
	6600 1000 7100 1000
Wire Wire Line
	7100 1000 7100 2600
Connection ~ 4500 2600
Wire Wire Line
	6700 2600 6700 2400
Connection ~ 6700 2600
Wire Wire Line
	7700 1400 9600 1400
Wire Wire Line
	8450 1400 8450 1550
Wire Wire Line
	7950 1550 7950 1400
Connection ~ 7950 1400
Wire Wire Line
	7950 1850 7950 1950
Wire Wire Line
	6250 1950 8450 1950
Wire Wire Line
	8450 1850 8450 2150
Connection ~ 8450 1950
Wire Wire Line
	6250 1950 6250 1600
Wire Wire Line
	6250 1600 6000 1600
Connection ~ 7950 1950
Wire Wire Line
	9150 1250 9150 1600
Connection ~ 8450 1400
Wire Wire Line
	9150 1900 9150 2150
Wire Wire Line
	9150 2450 9150 2750
Wire Wire Line
	8450 2600 8450 2450
Connection ~ 8450 2600
Connection ~ 7100 2600
$Comp
L LED D202
U 1 1 58BE6347
P 9600 2250
F 0 "D202" H 9600 2350 50  0000 C CNN
F 1 "12V" H 9600 2150 50  0000 C CNN
F 2 "Resistors_SMD:R_0603_HandSoldering" H 9600 2250 50  0001 C CNN
F 3 "" H 9600 2250 50  0000 C CNN
	1    9600 2250
	0    -1   -1   0   
$EndComp
$Comp
L R R204
U 1 1 58BE64B1
P 9600 1700
F 0 "R204" V 9680 1700 50  0000 C CNN
F 1 "4k7" V 9600 1700 50  0000 C CNN
F 2 "Resistors_SMD:R_0603_HandSoldering" V 9530 1700 50  0001 C CNN
F 3 "" H 9600 1700 50  0000 C CNN
	1    9600 1700
	-1   0    0    1   
$EndComp
Wire Wire Line
	9600 1300 9600 1550
Connection ~ 9150 1400
Wire Wire Line
	9600 1850 9600 2100
Wire Wire Line
	9600 2600 9600 2400
Connection ~ 9150 2600
$Comp
L GND #PWR08
U 1 1 58BE752D
P 9150 2750
F 0 "#PWR08" H 9150 2500 50  0001 C CNN
F 1 "GND" H 9150 2600 50  0000 C CNN
F 2 "" H 9150 2750 50  0000 C CNN
F 3 "" H 9150 2750 50  0000 C CNN
	1    9150 2750
	1    0    0    -1  
$EndComp
$Comp
L +12V #PWR09
U 1 1 58BE82F6
P 9150 1250
F 0 "#PWR09" H 9150 1100 50  0001 C CNN
F 1 "+12V" H 9150 1390 50  0000 C CNN
F 2 "" H 9150 1250 50  0000 C CNN
F 3 "" H 9150 1250 50  0000 C CNN
	1    9150 1250
	1    0    0    -1  
$EndComp
Connection ~ 2650 1000
$Comp
L TPS54302 U202
U 1 1 58BEA2B7
P 3650 3750
F 0 "U202" H 3650 4100 60  0000 C CNN
F 1 "TPS54302" H 3650 3400 60  0000 C CNN
F 2 "TO_SOT_Packages_SMD:SOT-23-6_Handsoldering" H 3650 3750 60  0001 C CNN
F 3 "" H 3650 3750 60  0000 C CNN
	1    3650 3750
	1    0    0    -1  
$EndComp
$Comp
L C C209
U 1 1 58BEA5F9
P 2650 3950
F 0 "C209" H 2675 4050 50  0000 L CNN
F 1 "10µ" H 2675 3850 50  0000 L CNN
F 2 "Capacitors_SMD:C_0603_HandSoldering" H 2688 3800 50  0001 C CNN
F 3 "" H 2650 3950 50  0000 C CNN
	1    2650 3950
	1    0    0    -1  
$EndComp
$Comp
L C C208
U 1 1 58BEA698
P 4400 3550
F 0 "C208" V 4450 3600 50  0000 L CNN
F 1 "100n" V 4350 3600 50  0000 L CNN
F 2 "Capacitors_SMD:C_0603_HandSoldering" H 4438 3400 50  0001 C CNN
F 3 "" H 4400 3550 50  0000 C CNN
	1    4400 3550
	0    1    1    0   
$EndComp
$Comp
L R R209
U 1 1 58BEA778
P 5700 4550
F 0 "R209" V 5780 4550 50  0000 C CNN
F 1 "22k" V 5700 4550 50  0000 C CNN
F 2 "Resistors_SMD:R_0603_HandSoldering" V 5630 4550 50  0001 C CNN
F 3 "" H 5700 4550 50  0000 C CNN
	1    5700 4550
	-1   0    0    1   
$EndComp
$Comp
L R R207
U 1 1 58BEA83B
P 5700 4050
F 0 "R207" V 5780 4050 50  0000 C CNN
F 1 "100k" V 5700 4050 50  0000 C CNN
F 2 "Resistors_SMD:R_0603_HandSoldering" V 5630 4050 50  0001 C CNN
F 3 "" H 5700 4050 50  0000 C CNN
	1    5700 4050
	-1   0    0    1   
$EndComp
$Comp
L C C212
U 1 1 58BEA89F
P 6050 4350
F 0 "C212" H 6075 4450 50  0000 L CNN
F 1 "22µ 25V" H 6075 4250 50  0000 L CNN
F 2 "Capacitors_SMD:C_1206_HandSoldering" H 6088 4200 50  0001 C CNN
F 3 "" H 6050 4350 50  0000 C CNN
	1    6050 4350
	1    0    0    -1  
$EndComp
$Comp
L C C213
U 1 1 58BEA9A8
P 6450 4350
F 0 "C213" H 6475 4450 50  0000 L CNN
F 1 "22µ 25V" H 6475 4250 50  0000 L CNN
F 2 "Capacitors_SMD:C_1206_HandSoldering" H 6488 4200 50  0001 C CNN
F 3 "" H 6450 4350 50  0000 C CNN
	1    6450 4350
	1    0    0    -1  
$EndComp
$Comp
L C C214
U 1 1 58BEAA0C
P 6850 4350
F 0 "C214" H 6875 4450 50  0000 L CNN
F 1 "22µ 25V" H 6875 4250 50  0000 L CNN
F 2 "Capacitors_SMD:C_1206_HandSoldering" H 6888 4200 50  0001 C CNN
F 3 "" H 6850 4350 50  0000 C CNN
	1    6850 4350
	1    0    0    -1  
$EndComp
$Comp
L C C210
U 1 1 58BEAA73
P 5350 4000
F 0 "C210" H 5375 4100 50  0000 L CNN
F 1 "300p" H 5375 3900 50  0000 L CNN
F 2 "Capacitors_SMD:C_0603_HandSoldering" H 5388 3850 50  0001 C CNN
F 3 "" H 5350 4000 50  0000 C CNN
	1    5350 4000
	-1   0    0    1   
$EndComp
$Comp
L L L202
U 1 1 58BEB253
P 5000 3750
F 0 "L202" V 4950 3750 50  0000 C CNN
F 1 "6µ8" V 5075 3750 50  0000 C CNN
F 2 "Inductors_SMD:L_Taiyo-Yuden_NR-50xx_HandSoldering" H 5000 3750 50  0001 C CNN
F 3 "" H 5000 3750 50  0001 C CNN
	1    5000 3750
	0    -1   -1   0   
$EndComp
Wire Wire Line
	5150 3750 7750 3750
Wire Wire Line
	5350 3750 5350 3850
Wire Wire Line
	5700 3750 5700 3900
Connection ~ 5350 3750
Wire Wire Line
	5350 4150 5350 4300
Wire Wire Line
	4700 4300 5700 4300
Wire Wire Line
	5700 4200 5700 4400
Connection ~ 5700 4300
Wire Wire Line
	6850 3600 6850 4200
Connection ~ 5700 3750
Wire Wire Line
	6450 3650 6450 4200
Connection ~ 6450 3750
Wire Wire Line
	6050 4200 6050 3750
Connection ~ 6050 3750
Wire Wire Line
	6850 4500 6850 4950
Wire Wire Line
	2650 4800 7750 4800
Wire Wire Line
	2950 3750 2950 4800
Wire Wire Line
	2950 3750 3150 3750
Wire Wire Line
	3150 3550 2650 3550
Wire Wire Line
	2650 3400 2650 3800
Wire Wire Line
	2650 4100 2650 4800
Connection ~ 2950 4800
Wire Wire Line
	4150 3750 4850 3750
Wire Wire Line
	4150 3550 4250 3550
Wire Wire Line
	4550 3550 4700 3550
Wire Wire Line
	4700 3550 4700 3750
Connection ~ 4700 3750
Wire Wire Line
	5700 4700 5700 4800
Connection ~ 5700 4800
Wire Wire Line
	6050 4500 6050 4800
Connection ~ 6050 4800
Wire Wire Line
	6450 4500 6450 4800
Connection ~ 6450 4800
Wire Wire Line
	4150 3950 4700 3950
Wire Wire Line
	4700 3950 4700 4300
Connection ~ 5350 4300
$Comp
L L L203
U 1 1 58BED6F8
P 7900 3750
F 0 "L203" V 7850 3750 50  0000 C CNN
F 1 "100n" V 7975 3750 50  0000 C CNN
F 2 "Inductors_SMD:L_0603_HandSoldering" H 7900 3750 50  0001 C CNN
F 3 "" H 7900 3750 50  0000 C CNN
	1    7900 3750
	0    -1   -1   0   
$EndComp
$Comp
L C C211
U 1 1 58BEDA7E
P 8350 4300
F 0 "C211" H 8375 4400 50  0000 L CNN
F 1 "6µ8" H 8375 4200 50  0000 L CNN
F 2 "Capacitors_SMD:C_1206_HandSoldering" H 8388 4150 50  0001 C CNN
F 3 "" H 8350 4300 50  0000 C CNN
	1    8350 4300
	1    0    0    -1  
$EndComp
Connection ~ 6850 3750
Wire Wire Line
	8050 3750 8850 3750
Wire Wire Line
	8350 3600 8350 4150
Wire Wire Line
	8350 4450 8350 4950
Connection ~ 6850 4800
$Comp
L GND #PWR010
U 1 1 58BEF512
P 6850 4950
F 0 "#PWR010" H 6850 4700 50  0001 C CNN
F 1 "GND" H 6850 4800 50  0000 C CNN
F 2 "" H 6850 4950 50  0000 C CNN
F 3 "" H 6850 4950 50  0000 C CNN
	1    6850 4950
	1    0    0    -1  
$EndComp
$Comp
L R R210
U 1 1 58BEFA03
P 7900 4800
F 0 "R210" V 7980 4800 50  0000 C CNN
F 1 "0R" V 7900 4800 50  0000 C CNN
F 2 "Resistors_SMD:R_0603_HandSoldering" V 7830 4800 50  0001 C CNN
F 3 "" H 7900 4800 50  0000 C CNN
	1    7900 4800
	0    -1   -1   0   
$EndComp
Wire Wire Line
	8050 4800 8850 4800
$Comp
L GNDA #PWR011
U 1 1 58BEFE29
P 8350 4950
F 0 "#PWR011" H 8350 4700 50  0001 C CNN
F 1 "GNDA" H 8350 4800 50  0000 C CNN
F 2 "" H 8350 4950 50  0000 C CNN
F 3 "" H 8350 4950 50  0000 C CNN
	1    8350 4950
	1    0    0    -1  
$EndComp
Connection ~ 8350 4800
$Comp
L +3.3VADC #PWR012
U 1 1 58BF0398
P 8350 3600
F 0 "#PWR012" H 8500 3550 50  0001 C CNN
F 1 "+3.3VADC" H 8350 3700 50  0000 C CNN
F 2 "" H 8350 3600 50  0000 C CNN
F 3 "" H 8350 3600 50  0000 C CNN
	1    8350 3600
	1    0    0    -1  
$EndComp
Connection ~ 8350 3750
$Comp
L +3.3V #PWR013
U 1 1 58BF0615
P 6850 3600
F 0 "#PWR013" H 6850 3450 50  0001 C CNN
F 1 "+3.3V" H 6850 3740 50  0000 C CNN
F 2 "" H 6850 3600 50  0000 C CNN
F 3 "" H 6850 3600 50  0000 C CNN
	1    6850 3600
	1    0    0    -1  
$EndComp
$Comp
L +12V #PWR014
U 1 1 58BF06E9
P 2650 3400
F 0 "#PWR014" H 2650 3250 50  0001 C CNN
F 1 "+12V" H 2650 3540 50  0000 C CNN
F 2 "" H 2650 3400 50  0000 C CNN
F 3 "" H 2650 3400 50  0000 C CNN
	1    2650 3400
	1    0    0    -1  
$EndComp
Connection ~ 2650 3550
$Comp
L PWR_FLAG #FLG015
U 1 1 58BF1EAB
P 2650 850
F 0 "#FLG015" H 2650 945 50  0001 C CNN
F 1 "PWR_FLAG" H 2650 1030 50  0000 C CNN
F 2 "" H 2650 850 50  0000 C CNN
F 3 "" H 2650 850 50  0000 C CNN
	1    2650 850 
	1    0    0    -1  
$EndComp
$Comp
L PWR_FLAG #FLG016
U 1 1 58BF20C3
P 9600 1300
F 0 "#FLG016" H 9600 1395 50  0001 C CNN
F 1 "PWR_FLAG" H 9600 1480 50  0000 C CNN
F 2 "" H 9600 1300 50  0000 C CNN
F 3 "" H 9600 1300 50  0000 C CNN
	1    9600 1300
	1    0    0    -1  
$EndComp
Connection ~ 9600 1400
$Comp
L PWR_FLAG #FLG017
U 1 1 58BF24F8
P 8850 3650
F 0 "#FLG017" H 8850 3745 50  0001 C CNN
F 1 "PWR_FLAG" H 8850 3830 50  0000 C CNN
F 2 "" H 8850 3650 50  0000 C CNN
F 3 "" H 8850 3650 50  0000 C CNN
	1    8850 3650
	1    0    0    -1  
$EndComp
$Comp
L PWR_FLAG #FLG018
U 1 1 58BF2A85
P 6450 3650
F 0 "#FLG018" H 6450 3745 50  0001 C CNN
F 1 "PWR_FLAG" H 6450 3830 50  0000 C CNN
F 2 "" H 6450 3650 50  0000 C CNN
F 3 "" H 6450 3650 50  0000 C CNN
	1    6450 3650
	1    0    0    -1  
$EndComp
Wire Wire Line
	8850 3750 8850 3650
$Comp
L PWR_FLAG #FLG019
U 1 1 58BF326C
P 8850 4700
F 0 "#FLG019" H 8850 4795 50  0001 C CNN
F 1 "PWR_FLAG" H 8850 4880 50  0000 C CNN
F 2 "" H 8850 4700 50  0000 C CNN
F 3 "" H 8850 4700 50  0000 C CNN
	1    8850 4700
	1    0    0    -1  
$EndComp
Wire Wire Line
	8850 4800 8850 4700
$Comp
L R R208
U 1 1 58BF54A6
P 7400 4100
F 0 "R208" V 7480 4100 50  0000 C CNN
F 1 "1k" V 7400 4100 50  0000 C CNN
F 2 "Resistors_SMD:R_0603_HandSoldering" V 7330 4100 50  0001 C CNN
F 3 "" H 7400 4100 50  0000 C CNN
	1    7400 4100
	-1   0    0    1   
$EndComp
$Comp
L LED D203
U 1 1 58BF5B7B
P 7400 4500
F 0 "D203" H 7400 4600 50  0000 C CNN
F 1 "3V3" H 7400 4400 50  0000 C CNN
F 2 "Resistors_SMD:R_0603_HandSoldering" H 7400 4500 50  0001 C CNN
F 3 "" H 7400 4500 50  0000 C CNN
	1    7400 4500
	0    -1   -1   0   
$EndComp
Wire Wire Line
	7400 3950 7400 3750
Connection ~ 7400 3750
Wire Wire Line
	7400 4250 7400 4350
Wire Wire Line
	7400 4650 7400 4800
Connection ~ 7400 4800
Text HLabel 2000 2350 0    60   Input ~ 0
SD
Wire Wire Line
	4050 2350 4050 1200
Connection ~ 4050 1200
NoConn ~ 3150 3950
$Comp
L C C203
U 1 1 58C3FE89
P 2650 1600
F 0 "C203" H 2675 1700 50  0000 L CNN
F 1 "1µ 200V" V 2700 1100 50  0000 L CNN
F 2 "Capacitors_SMD:C_2220_HandSoldering" H 2688 1450 50  0001 C CNN
F 3 "" H 2650 1600 50  0000 C CNN
	1    2650 1600
	1    0    0    -1  
$EndComp
$Comp
L C C204
U 1 1 58C4030C
P 2900 1600
F 0 "C204" H 2925 1700 50  0000 L CNN
F 1 "1µ 200V" V 2950 1100 50  0000 L CNN
F 2 "Capacitors_SMD:C_2220_HandSoldering" H 2938 1450 50  0001 C CNN
F 3 "" H 2900 1600 50  0000 C CNN
	1    2900 1600
	1    0    0    -1  
$EndComp
Wire Wire Line
	2900 1000 2900 1450
Connection ~ 2900 1000
Wire Wire Line
	2900 1750 2900 2600
Connection ~ 2900 2600
$Comp
L +BATT #PWR020
U 1 1 58D089A5
P 2200 850
F 0 "#PWR020" H 2200 700 50  0001 C CNN
F 1 "+BATT" H 2200 990 50  0000 C CNN
F 2 "" H 2200 850 50  0001 C CNN
F 3 "" H 2200 850 50  0001 C CNN
	1    2200 850 
	1    0    0    -1  
$EndComp
Wire Wire Line
	2200 850  2200 1000
Wire Wire Line
	2200 1000 4700 1000
Wire Wire Line
	2000 2350 4050 2350
Wire Wire Line
	2200 2600 9600 2600
Wire Wire Line
	3500 1200 3500 1000
$Comp
L PWR_FLAG #FLG021
U 1 1 58D31806
P 2200 2150
F 0 "#FLG021" H 2200 2245 50  0001 C CNN
F 1 "PWR_FLAG" H 2200 2330 50  0000 C CNN
F 2 "" H 2200 2150 50  0000 C CNN
F 3 "" H 2200 2150 50  0000 C CNN
	1    2200 2150
	1    0    0    -1  
$EndComp
Wire Wire Line
	2200 2600 2200 2150
Connection ~ 2650 2600
$EndSCHEMATC
